{
  "profiles": {
    "Docker Compose": {
      "commandName": "DockerCompose",
      "commandVersion": "1.0",
      "composeLaunchAction": "LaunchBrowser",
      "composeLaunchServiceName": "eshop",
      "composeLaunchUrl": "https://localhost:5001/swagger/index.html",
      "serviceActions": {
        "eshop": "StartDebugging"
      }
    }
  }
}